22/05/2018,VERIFIED,R,BGL0010,SAMUEL MUSILA MULI,32567113,705955523,MEM5JH6KXF,MAKUENI,AISHER,MOMBASA
26/04/2018,VERIFIED,R,BGL0004,BENERD KILONZO WAITA,29028083,718300392,MDQ82O1XGC,NAIROBI,LAURA,NAIROBI
06/07/2018,VERIFIED,R,BGL0031,ALEXANDER KYALO MUTUA,14423412,710674048,MG67DETLGT,MAKUENI,,
,VERIFIED,,,BENSON MUCHERU MUIGAI,20539144,726993573,,,,
,VERIFIED,,,IRENE WAVINYA WAMBUA,32878928,703533782,,,,
,VERIFIED,,,BENSON MUCHERU MUIGAI,20539144,726993573,,,,
,VERIFIED,,,IRENE WAVINYA WAMBUA,32878928,703533782,,,,
,NOT VERIFIED,,,FREDRICK MUINDE,29454506,723170751,,,,
,NOT VERIFIED,,,KELVIN MWALIMU,25138040,799445578,,,,
,NOT VERIFIED,,,MASOLO JONATHAN,28172774,713282190,,,,
,VERIFIED,,,CLINTON MMBANO,32284451,725676862,,,,
,VERIFIED,,,CHARLES WAITHAKA,29197092,721498208,,,,
,,,,KELVIN NGUGI MAINA,28766500,706030134,,,,
