17/04/2018,VERIFIED,R,BGL0001,JOSEPH NGUGI MWEA,32909051,727221041,MDH2VMNLU0,THIKA,TIMOTHY,NAIROBI
18/04/2018,VERIFIED,R,BGL0002,ANTONE OTIENO ODUOR,25114750,721137917,MDI1WBXMLR,NAIROBI,WINNIE,NAIROBI
26/04/2018,VERIFIED,R,BGL0004,BENERD KILONZO WAITA,29028083,718300392,MDQ82O1XGC,NAIROBI,LAURA,NAIROBI
02/05/2018,VERIFIED,R,BGL0005,VIRGINIA KARUNGARI KURIA,10609994,720779230,ME276E9MYR,NAIROBI,TIMOTHY,NAIROBI
06/05/2018,NOT VERIRIED,R,BGL0006,KINYAMASYO KOMU,32591430    ,791021489,ME699N783J,,,
14/05/2018,VERIFIED,R,BGL0007,EUGENE NYONGESA KUNDU,31986946,725655952,MEE3EFGGTX,NAIROBI,AISHA,MOMBASA
21/05/2018,VERIFIED,R,BGL0008,GANJA PETU GANJA,11761465,728203126,MEL0IT0OF4,MOMBASA,AISHA,MOMBASA
22/05/2018,VERIFIED,R,BGL0009,ALBANUS MULINGE MUTUNGA,32994299,705350337,ME0JC4KW8,MAKUENI,AISHA,MOMBASA
22/05/2018,VERIFIED,R,BGL0010,SAMUEL MUSILA MULI,32567113,705955523,MEM5JH6KXF,MAKUENI,AISHER,MOMBASA
25/05/2018,NOT VERIFIED,R,BG0011,JOB NDATHO NJAGI ,22780692,723436087,,,,
06/07/2018,VERIFIED,R,BGL0031,ALEXANDER KYALO MUTUA,14423412,710674048,,,,
19/07/2018,VERIFIED,R,BGL0041,JAIRUS MUTWIRI,31545924,708891530,,,,
25/07/2018,VERIFIED,R,BGL0042,OLUOCH COLLICE GOR,33102874,700416343,MGP8PO7QDW,NAIROBI,,
,VERIFIED,,,BENSON MUCHERU MUIGAI,20539144,726993573,,,,
,VERIFIED,,,BENARD KIMEMIA GICINGA,24748832,726078778,,,,
,VERIFIED,,,IRENE WAVINYA WAMBUA,32878928,703533782,,,,
,VERIFIED,,,ELIJAH MOGUSU,26399344,720882829,,,,
,VERIFIED,,,KENNEDY MANTHI MUTUKU,23404821,728307796,,,,
,VERIFIED,,,DANIEL MONORI,33241152,705700729,,,,
,VERIFIED,,,MOCHERE JOSEPH ISAAC,28506694,723277694,,,,
,VERIFIED,,,BENSON MUCHERU MUIGAI,20539144,726993573,,,,
,VERIFIED,,,BENARD KIMEMIA GICINGA,24748832,726078778,,,,
,VERIFIED,,,IRENE WAVINYA WAMBUA,32878928,703533782,,,,
,VERIFIED,,,ELIJAH MOGUSU,26399344,720882829,,,,
,VERIFIED,,,KENNEDY MANTHI MUTUKU,23404821,728307796,,,,
,VERIFIED,,,MOCHERE JOSEPH ISAAC,28506694,723277694,,,,
,VERIFIED,,,ALPHONCE MISUNGU AYOO,31657398,741783401,,,,
,VERIFIED,,,CAROLINE NTHAMBI MUTISYA,29344493,714411410,,,,
,VERIFIED,,,DENNIS KANGETHE BONFACE,33502685,701162564,,,,
,VERIFIED,,,NIXON MUUMBI MWANZIA,34129792,718409373,,,,
,VERIFIED,,,CAROLINE NTHAMBI MUTISYA,29344493,714411410,,,,
,VERIFIED,,,VINCENT KIMILU NDOLO,33175083,,,,,
,VERIFIED,,,NICHOLAS WANJALA LUMBASI,33728434,705286363,,,,
,VERIFIED,,,KITE ABRAHAM,,713670102,,,,
,VERIFIED,,,EVANS KIPROTICH,29191463,728448562,,,,
,VERIFIED,,,KEROSI OMBUI,31899047,701741105,,,,
,VERIFIED,,,JOSHUA KAMUNYA KARURI,32139635,724611946,,,,
,VERIFIED,,,KELVIN MARTIN,29857417,715468005,,,,
,VERIFIED,,,ELISHA MAKAU ,29198933,,,,,
,VERIFIED,,,ALEX KIBET,32458003,,,,,
,VERIFIED,,,MASOLO JONATHAN,28172774,713282190,,,,
,VERIFIED,,,OLUOCH COLLICE GOR,33102874,700416343,,,,
,VERIFIED,,,CLINTON MMBANO,32284451,0725 676 862,,,,
,VERIFIED,,,DICKSON KOECH,,721592033,,,,
,VERIFIED,,,JOHN MACHARIA WANJIRU,,720626492,,,,
,VERIFIED,,,PETER ONDIEK OSIR,23847555,721796381,,,,
,,,,JOSEPH KAMAU,34040802,791543355,,,,
,,,,MULI VULI,23996991,725413378,,,,
,,,,KELVIN NGUGI MAINA,28766500,706030134,,,,
