26/04/2018,VERIFIED,R,BGL0004,BENERD KILONZO WAITA,29028083,718300392,MDQ82O1XGC,NAIROBI,LAURA,NAIROBI
22/05/2018,VERIFIED,R,BGL0009,ALBANUS MULINGE MUTUNGA,32994299,705350337,ME0JC4KW8,MAKUENI,AISHA,MOMBASA
11/06/2018,VERIFIED,R,BGL0018,JAMES MUTHEE KARANJA,23351349,727139386,,,,
,VERIFIED,,,SYLVESTER MATOO OGERO,30040032,714419354,,,,
,VERIFIED,,,CAROLINE NTHAMBI MUTISYA,29344493,714411410,,,,
,NOT VERIFIED,,,CAROLINE NTHAMBI MUTISYA,29344493,714411410,,,,
,NOT VERIFIED,,,VINCENT KIMILU NDOLO,33175083,,,,,
,NOT VERIFIED,,,COLLINS KIBET KIRUI,31905492,,,,,
,NOT VERIFIED,,,GABRIEL MUTHENI,24042264,724092969,,,,
,NOT VERIFIED,,,ALEX KIBET,32458003,,,,,
,,,,WESLEY MOSONIK,22375941,,,,,
