26/04/2018,VERIFIED,R,BGL0004,BENERD KILONZO WAITA,29028083,718300392,MDQ82O1XGC,NAIROBI,LAURA,NAIROBI,
07/06/2018,NOT VERIFIED,R,BG0015,MICHAEL OTIENO ONGONE,14479085,722622681,MF78TMP2K0,NAIROBI,,NAIROBI,
,VERIFIED,,,DANIEL MONORI,33241152,705700729,,,,,
,,,,BENSON MUCHERU MUIGAI,20539144,726993573,,,,,
,,,,KENNEDY ODUOR,,723995400,,MOMBASA,,,PLANT MECHANIC (FORKLIFT)
,,,,JULIUS MWAKA,,716883385,,,,,
,,,,GEORGE JUMA,,715501217,,,,,
,,,,JOSHUA ARUA,,722846002,,,,,
,,,,ENOCK MWENDAWIRO ,22948504,786397563,,TAITA TAVETA,,,
,,,,MWENDA ,,723948025,,,,,
,,,,ANDREW KATAMA,27249843,713926664,,,,,
